{
  "images" : [
    {
      "idiom" : "universal",
      "filename" : "np_list_1556741_000000.png",
      "scale" : "1x"
    },
    {
      "idiom" : "universal",
      "filename" : "np_list_1556741_000000-1.png",
      "scale" : "2x"
    },
    {
      "idiom" : "universal",
      "filename" : "np_list_1556741_000000-2.png",
      "scale" : "3x"
    }
  ],
  "info" : {
    "version" : 1,
    "author" : "xcode"
  }
}